[
    {"model": "auth.group", "pk": 1, "fields": {"name": "Moderators"} },
    {"model": "auth.group", "pk": 2, "fields": {"name": "Ulule"} },
    {"pk": 0, "model": "llx.contract", "fields": {"code": "Indifférent"}},
    {"pk": 1, "model": "llx.contract", "fields": {"code": "CDI"}},
    {"pk": 2, "model": "llx.contract", "fields": {"code": "CDD"}},
    {"pk": 3, "model": "llx.contract", "fields": {"code": "Stage"}},
    {"pk": 4, "model": "llx.contract", "fields": {"code": "Freelance"}},
    {"pk": 5, "model": "llx.contract", "fields": {"code": "Apprentissage"}},
    {"pk": 6, "model": "llx.contract", "fields": {"code": "Alternance"}},

    {"pk": 0, "model": "llx.remotework", "fields": {"label": "Ne pratique pas"}},
    {"pk": 1, "model": "llx.remotework", "fields": {"label": "Télétravail partiel possible"}},
    {"pk": 2, "model": "llx.remotework", "fields": {"label": "Télétravail complet possible"}},
    {"pk": 3, "model": "llx.remotework", "fields": {"label": "Télétravail encouragé"}},
    {"pk": 4, "model": "llx.remotework", "fields": {"label": "Télétravail impossible"}},

    {"pk":  1, "model": "llx.region", "fields": {"name": "Île-de-France", "insee": 11}},
    {"pk":  2, "model": "llx.region", "fields": {"name": "Nord-Pas-de-Calais", "insee": 31}},
    {"pk":  3, "model": "llx.region", "fields": {"name": "Rhône-Alpes", "insee": 82}},
    {"pk":  4, "model": "llx.region", "fields": {"name": "Basse-Normandie", "insee": 25}},
    {"pk":  5, "model": "llx.region", "fields": {"name": "Provence-Alpes-Côte-d'Azur", "insee": 37}},
    {"pk":  6, "model": "llx.region", "fields": {"name": "Bretagne", "insee": 53}},
    {"pk":  7, "model": "llx.region", "fields": {"name": "Auvergne", "insee": 83}},
    {"pk":  8, "model": "llx.region", "fields": {"name": "Languedoc-Roussillon", "insee": 91}},
    {"pk":  9, "model": "llx.region", "fields": {"name": "Aquitaine", "insee": 72}},
    {"pk": 10, "model": "llx.region", "fields": {"name": "Picardie", "insee": 22}},
    {"pk": 11, "model": "llx.region", "fields": {"name": "Alsace", "insee": 42}},
    {"pk": 12, "model": "llx.region", "fields": {"name": "Lorraine", "insee": 41}},
    {"pk": 13, "model": "llx.region", "fields": {"name": "Bourgogne", "insee": 26}},
    {"pk": 14, "model": "llx.region", "fields": {"name": "Corse", "insee": 94}},
    {"pk": 15, "model": "llx.region", "fields": {"name": "Franche-Comté", "insee": 43}},
    {"pk": 16, "model": "llx.region", "fields": {"name": "Midi-Pyrénées", "insee": 73}},
    {"pk": 17, "model": "llx.region", "fields": {"name": "Centre", "insee": 24}},
    {"pk": 18, "model": "llx.region", "fields": {"name": "Poitou-Charentes", "insee": 54}},
    {"pk": 19, "model": "llx.region", "fields": {"name": "Limousin", "insee": 74}},
    {"pk": 20, "model": "llx.region", "fields": {"name": "Pays de la Loire", "insee": 52}},
    {"pk": 21, "model": "llx.region", "fields": {"name": "Champagne-Ardenne", "insee": 21}},
    {"pk": 22, "model": "llx.region", "fields": {"name": "La Réunion", "insee": 4}},
    {"pk": 23, "model": "llx.region", "fields": {"name": "Guadeloupe", "insee": 1}},
    {"pk": 24, "model": "llx.region", "fields": {"name": "Guyane", "insee": 3}},
    {"pk": 25, "model": "llx.region", "fields": {"name": "Martinique", "insee": 2}},
    {"pk": 26, "model": "llx.region", "fields": {"name": "Saint-Pierre et Miquelon"}},
    {"pk": 27, "model": "llx.region", "fields": {"name": "Haute-Normandie", "insee": 23}},
    {"pk": 28, "model": "llx.region", "fields": {"name": "Mayotte", "insee": 6}},
    {"pk": 100, "model": "llx.region", "fields": {"name": "France entière"}},
    {"pk": 101, "model": "llx.region", "fields": {"name": "France métropolitaine"}},
    {"pk": 102, "model": "llx.region", "fields": {"name": "DOM et TOM"}},
    {"pk": 200, "model": "llx.region", "fields": {"name": "Etranger"}},


    {"pk": 1, "model": "llx.diplom", "fields": {"name": "Baccalauréat"}},
    {"pk": 2, "model": "llx.diplom", "fields": {"name": "BTS"}},
    {"pk": 3,
     "model": "llx.diplom",
     "fields": {"name": "Licence"}},
    {"pk": 4,
     "model": "llx.diplom",
     "fields": {"name": "Maitrise"}},
    {"pk": 5,
     "model": "llx.diplom",
     "fields": {"name": "DEA"}},
    {"pk": 6,
     "model": "llx.diplom",
     "fields": {"name": "DESS"}},
    {"pk": 7,
     "model": "llx.diplom",
     "fields": {"name": "BEP"}},
    {"pk": 8,
     "model": "llx.diplom",
     "fields": {"name": "CAP"}},
    {"pk": 9,
     "model": "llx.diplom",
     "fields": {"name": "Diplôme d'ingénieur"}},
    {"pk": 10,
     "model": "llx.diplom",
     "fields": {"name": "DUT"}},
    {"pk": 11,
     "model": "llx.diplom",
     "fields": {"name": "DEUG"}},
    {"pk": 12,
     "model": "llx.diplom",
     "fields": {"name": "DU"}},
    {"pk": 13,
     "model": "llx.diplom",
     "fields": {"name": "Doctorat"}},
    {"pk": 14,
     "model": "llx.diplom",
     "fields": {"name": "Agrégation"}},
    {"pk": 15,
     "model": "llx.diplom",
     "fields": {"name": "IUP"}},
    {"pk": 16,
     "model": "llx.diplom",
     "fields": {"name": "TOEIC"}},
    {"pk": 17,
     "model": "llx.diplom",
     "fields": {"name": "DEST Cnam"}},
    {"pk": 18,
     "model": "llx.diplom",
     "fields": {"name": "MST"}},
    {"pk": 19,
     "model": "llx.diplom",
     "fields": {"name": "CAPES"}},
    {"pk": 20,
     "model": "llx.diplom",
     "fields": {"name": "Diplôme école de commerce"}},
    {"pk": 21,
     "model": "llx.diplom",
     "fields": {"name": "Magistère"}},

    {"model": "llx.tool", "pk": 1, "fields":   {"name": "GNU/Linux", "slug": "gnulinux", "family": 0, "category": 0, "url": "None"}},
    {"model": "llx.tool", "pk": 2, "fields":   {"name": "FreeBSD", "slug": "freebsd", "family": 0, "category": 0, "url": "None"}},
    {"model": "llx.tool", "pk": 3, "fields":   {"name": "NetBSD", "slug": "netbsd", "family": 0, "category": 0, "url": "None"}},
    {"model": "llx.tool", "pk": 4, "fields": {"name": "OpenBSD", "slug": "openbsd", "family": 0, "category": 0, "url": "None"}},
    {"model": "llx.tool", "pk": 7,   "fields": {"name": "AtheOS", "slug": "atheos", "family": 0, "category": 0, "url": "http://www.atheos.cx"}},
    {"model": "llx.tool", "pk": 8,   "fields": {"name": "Android", "slug": "android", "family": 0, "category": 0, "url": "None"}},
    {"model": "llx.tool", "pk": 9,   "fields": {"name": "FirefoxOS", "slug": "fxos", "family": 0, "category": 0, "url": "None"}},

    {"model": "llx.tool", "pk": 121, "fields": {"name": "GNU mifluz", "slug": "mifluz", "family": 0, "category": 1, "url": "http://www.senga.org/mifluz/html/"}},
    {"model": "llx.tool", "pk": 300, "fields": {"name": "TCP/IP", "slug": "tcpip", "family": 0, "category": 3, "url": "None"}},
    {"model": "llx.tool", "pk": 301, "fields": {"name": "Firewall", "slug": "firewall", "family": 0, "category": 3, "url": "None"}},
    {"model": "llx.tool", "pk": 302, "fields": {"name": "Routeurs", "slug": "routeurs", "family": 0, "category": 3, "url": "None"}},
    {"model": "llx.tool", "pk": 303, "fields": {"name": "WAN", "slug": "wan", "family": 0, "category": 3, "url": "None"}},
    {"model": "llx.tool", "pk": 304, "fields": {"name": "IPv6", "slug": "ipv6", "family": 0, "category": 3, "url": "None"}},
    {"model": "llx.tool", "pk": 305, "fields": {"name": "X.25", "slug": "x25", "family": 0, "category": 3, "url": "None"}},
    {"model": "llx.tool", "pk": 306, "fields": {"name": "Ethernet", "slug": "ethernet", "family": 0, "category": 3, "url": "None"}},
    {"model": "llx.tool", "pk": 307, "fields": {"name": "IPX/SPX", "slug": "ipxspx", "family": 0, "category": 3, "url": "None"}},
    {"model": "llx.tool", "pk": 308, "fields": {"name": "SNMP", "slug": "snmp", "family": 0, "category": 3, "url": "None"}},
    {"model": "llx.tool", "pk": 309, "fields": {"name": "ATM", "slug": "atm", "family": 0, "category": 3, "url": "None"}},
    {"model": "llx.tool", "pk": 310, "fields": {"name": "RNIS", "slug": "rnis", "family": 0, "category": 3, "url": "None"}},
    {"model": "llx.tool", "pk": 311, "fields": {"name": "VPN", "slug": "vpn", "family": 0, "category": 3, "url": "None"}},
    {"model": "llx.tool", "pk": 312, "fields": {"name": "NFS", "slug": "nfs", "family": 0, "category": 3, "url": "None"}},
    {"model": "llx.tool", "pk": 313, "fields": {"name": "DHCP", "slug": "dhcp", "family": 0, "category": 3, "url": "None"}},
    {"model": "llx.tool", "pk": 315, "fields": {"name": "NIS", "slug": "nis", "family": 0, "category": 3, "url": "None"}},
    {"model": "llx.tool", "pk": 115, "fields": {"name": "htdig", "slug": "htdig", "family": 0, "category": 1, "url": "http://www.htdig.org"}},
    {"model": "llx.tool", "pk": 317, "fields": {"name": "IMAP", "slug": "imap", "family": 0, "category": 3, "url": "None"}},
    {"model": "llx.tool", "pk": 318, "fields": {"name": "Token Ring", "slug": "tokenring", "family": 0, "category": 3, "url": "None"}},
    {"model": "llx.tool", "pk": 319, "fields": {"name": "OpenLDAP", "slug": "openldap", "family": 0, "category": 3, "url": "None"}},
    {"model": "llx.tool", "pk": 320, "fields": {"name": "OpenSSH", "slug": "opnssh", "family": 0, "category": 3, "url": "None"}},
    {"model": "llx.tool", "pk": 321, "fields": {"name": "ipchains", "slug": "ipchains", "family": 0, "category": 3, "url": "None"}},
    {"model": "llx.tool", "pk": 400, "fields": {"name": "SourceForge Bug Track", "slug": "sfbug", "family": 0, "category": 4, "url": "None"}},
    {"model": "llx.tool", "pk": 401, "fields": {"name": "UML_", "slug": "uml_", "family": 0, "category": 4, "url": "None"}},
    {"model": "llx.tool", "pk": 402, "fields": {"name": "Merise", "slug": "merise", "family": 0, "category": 4, "url": "None"}},
    {"model": "llx.tool", "pk": 403, "fields": {"name": "SADT", "slug": "sadt", "family": 0, "category": 4, "url": "None"}},
    {"model": "llx.tool", "pk": 404, "fields": {"name": "OMT", "slug": "omt", "family": 0, "category": 4, "url": "None"}},
    {"model": "llx.tool", "pk": 112, "fields": {"name": "Postfix", "slug": "postfix", "family": 0, "category": 1, "url": "http://www.postfix.org"}},
    {"model": "llx.tool", "pk": 111, "fields": {"name": "IBM DB2", "slug": "ibmdb2", "family": 0, "category": 10, "url": "None"}},
    {"model": "llx.tool", "pk": 131, "fields": {"name": "Smail", "slug": "smail", "family": 0, "category": 1, "url": "None"}},
    {"model": "llx.tool", "pk": 100, "fields": {"name": "Apache", "slug": "apache", "family": 2, "category": 1, "url": "http://www.apache.org"}},
    {"model": "llx.tool", "pk": 104, "fields": {"name": "PostgreSQL", "slug": "postgresql", "family": 0, "category": 5, "url": "http://www.postgresql.org"}},
    {"model": "llx.tool", "pk": 105, "fields": {"name": "MySQL", "slug": "mysql", "family": 0, "category": 5, "url": "http://www.mysql.com"}},
    {"model": "llx.tool", "pk": 316, "fields": {"name": "OpenSSL", "slug": "openssl", "family": 0, "category": 3, "url": "http://www.openssl.org"}},
    {"model": "llx.tool", "pk": 314, "fields": {"name": "iptables", "slug": "iptables", "family": 0, "category": 3, "url": "None"}},

    {"model": "llx.tool", "pk": 6, "fields": {"name": "GNU/Hurd", "slug": "hurd", "family": 0, "category": 0, "url": "None"}},
    {"model": "llx.tool", "pk": 128, "fields": {"name": "Roxen", "slug": "roxen", "family": 0, "category": 1, "url": "http://www.roxen.com"}},
    {"model": "llx.tool", "pk": 101, "fields": {"name": "Samba", "slug": "samba", "family": 0, "category": 1, "url": "None"}},
    {"model": "llx.tool", "pk": 102, "fields": {"name": "Sendmail", "slug": "sendmail", "family": 0, "category": 1, "url": "None"}},
    {"model": "llx.tool", "pk": 103, "fields": {"name": "INN", "slug": "inn", "family": 0, "category": 1, "url": "None"}},
    {"model": "llx.tool", "pk": 106, "fields": {"name": "Qmail", "slug": "qmail", "family": 0, "category": 1, "url": "None"}},
    {"model": "llx.tool", "pk": 107, "fields": {"name": "Squid", "slug": "squid", "family": 0, "category": 1, "url": "None"}},
    {"model": "llx.tool", "pk": 108, "fields": {"name": "Bind", "slug": "bind", "family": 0, "category": 1, "url": "None"}},

    {"model": "llx.tool", "pk": 113, "fields": {"name": "LaTeX", "slug": "latex", "family": 0, "category": 1, "url": "None"}},

    {"model": "llx.tool", "pk": 116, "fields": {"name": "Zope", "slug": "zope", "family": 0, "category": 1, "url": "None"}},
    {"model": "llx.tool", "pk": 117, "fields": {"name": "swish-e", "slug": "swish-e", "family": 0, "category": 1, "url": "None"}},
    {"model": "llx.tool", "pk": 118, "fields": {"name": "swish++", "slug": "swish++", "family": 0, "category": 1, "url": "None"}},
    {"model": "llx.tool", "pk": 119, "fields": {"name": "Hiways", "slug": "hiways", "family": 0, "category": 1, "url": "None"}},
    {"model": "llx.tool", "pk": 120, "fields": {"name": "Oops", "slug": "oops", "family": 0, "category": 1, "url": "None"}},
    {"model": "llx.tool", "pk": 122, "fields": {"name": "The gimp", "slug": "gimp", "family": 0, "category": 1, "url": "None"}},
    {"model": "llx.tool", "pk": 123, "fields": {"name": "CVS", "slug": "cvs", "family": 0, "category": 1, "url": "None"}},
    {"model": "llx.tool", "pk": 124, "fields": {"name": "ProFTPD", "slug": "proftpd", "family": 0, "category": 1, "url": "http://www.proftpd.org/"}},
    {"model": "llx.tool", "pk": 125, "fields": {"name": "Cyrus", "slug": "cyrus", "family": 0, "category": 1, "url": "None"}},
    {"model": "llx.tool", "pk": 126, "fields": {"name": "Amavis", "slug": "amavis", "family": 0, "category": 1, "url": "None"}},
    {"model": "llx.tool", "pk": 127, "fields": {"name": "Jonas", "slug": "jonas", "family": 0, "category": 1, "url": "None"}},
    {"model": "llx.tool", "pk": 114, "fields": {"name": "Exim", "slug": "exim", "family": 0, "category": 1, "url": "http://www.exim.org"}},
    {"model": "llx.tool", "pk": 129, "fields": {"name": "GRASS", "slug": "grass", "family": 0, "category": 1, "url": "None"}},
    {"model": "llx.tool", "pk": 130, "fields": {"name": "Midgard", "slug": "midgard", "family": 0, "category": 1, "url": "None"}},
    {"model": "llx.tool", "pk": 132, "fields": {"name": "Caudium", "slug": "caudium", "family": 0, "category": 1, "url": "http://www.caudium.net"}},



    {"model": "llx.tool", "pk": 322, "fields": {"name": "NetSaint", "slug": "netsaint", "family": 0, "category": 3, "url": "http://www.netsaint.org"}},
    {"model": "llx.tool", "pk": 323, "fields": {"name": "Nagios", "slug": "nagios", "family": 0, "category": 3, "url": "http://www.nagios.org"}},
    {"model": "llx.tool", "pk": 324, "fields": {"name": "Heartbeat", "slug": "heratbeat", "family": 0, "category": 3, "url": "linux-ha.org"}},
    {"model": "llx.tool", "pk": 325, "fields": {"name": "Nessus", "slug": "nessus", "family": 0, "category": 3, "url": "http://www.nessus.org"}},
    {"model": "llx.tool", "pk": 133, "fields": {"name": "Icecast", "slug": "icecast", "family": 0, "category": 1, "url": "http://www.icecast.org"}},
    {"model": "llx.tool", "pk": 134, "fields": {"name": "Glasnost", "slug": "glasnost", "family": 0, "category": 1, "url": "glasnost.entrouvert.org"}},

    {"model": "llx.tool", "pk": 135, "fields": {"name": "Asterisk", "slug": "asterisk", "family": 0, "category": 1, "url": "None"}},

    {"model": "llx.tool", "pk": 136, "fields": {"name": "Subversion", "slug": "svn", "family": 2, "category": 1, "url": "None"}},

    {"model": "llx.tool", "pk": 137, "fields": {"name": "Xen", "slug": "xen", "family": 0, "category": 1, "url": "http://www.cl.cam.ac.uk/Research/SRG/netos/xen/"}},
    {"model": "llx.tool", "pk": 138, "fields": {"name": "CUPS", "slug": "cups", "family": 0, "category": 1, "url": ""}},
    {"model": "llx.tool", "pk": 139, "fields": {"name": "Mailman", "slug": "mailman", "family": 0, "category": 1, "url": "http://www.gnu.org/software/mailman/index.html"}},
    {"model": "llx.tool", "pk": 140, "fields": {"name": "Tomcat", "slug": "tomcat", "family": 0, "category": 1, "url": ""}},
    {"model": "llx.tool", "pk": 141, "fields": {"name": "Linux VServer", "slug": "linux-vserver", "family": 0, "category": 1, "url": ""}},
    {"model": "llx.tool", "pk": 142, "fields": {"name": "Bacula", "slug": "bacula", "family": 0, "category": 1, "url": "http://www.bacula.org/"}},
    {"model": "llx.tool", "pk": 327, "fields": {"name": "Zabbix", "slug": "zabbix", "family": 0, "category": 3, "url": "http://www.zabbix.com"}},
    {"model": "llx.tool", "pk": 143, "fields": {"name": "squirrelmail", "slug": "squirrelmail", "family": 0, "category": 1, "url": "http://www.squirrelmail.org"}},
    {"model": "llx.tool", "pk": 144, "fields": {"name": "Sympa", "slug": "sympa", "family": 0, "category": 1, "url": "None"}},
    {"model": "llx.tool", "pk": 149, "fields": {"name": "CfEngine", "slug": "cfengine", "family": 0, "category": 1, "url": "None"}},
    {"model": "llx.tool", "pk": 145, "fields": {"name": "kvm", "slug": "kvm", "family": 0, "category": 1, "url": "None"}},
    {"model": "llx.tool", "pk": 146, "fields": {"name": "Postgis", "slug": "postgis", "family": 0, "category": 5, "url": "http://www.postgis.fr/"}},

    {"model": "llx.tool", "pk": 147, "fields": {"name": "Viking", "slug": "viking", "family": 0, "category": 1, "url": "sourceforge.net/apps/mediawiki/viking/index.php?title=Main_Page"}},
    {"model": "llx.tool", "pk": 148, "fields": {"name": "MapServer", "slug": "mapserver", "family": 0, "category": 1, "url": "mapserver.org"}},

    {"model": "llx.tool", "pk": 150, "fields": {"name": "git", "slug": "git", "family": 1, "category": 6, "url": "http://www.git-scm.com/"}},
    {"model": "llx.tool", "pk": 151, "fields": {"name": "mongoDB", "slug": "mongodb", "family": 0, "category": 5, "url": "https://www.mongodb.org/"}},
    {"model": "llx.tool", "pk": 152, "fields": {"name": "Redis", "slug": "redis", "family": 0, "category": 5, "url": "http://redis.io/"}},
    {"model": "llx.tool", "pk": 153, "fields": {"name": "QGIS", "slug": "qgis", "family": 0, "category": 7, "url": "http://www.qgis.org/"}},
    {"model": "llx.tool", "pk": 154, "fields": {"name": "GVSIG", "slug": "gvsig", "family": 0, "category": 1, "url": "http://www.gvsig.org/"}},
    {"model": "llx.tool", "pk": 155, "fields": {"name": "mercurial", "slug": "mercurial", "family": 1, "category": 6, "url": "http://mercurial.selenic.com/"}},
    {"model": "llx.tool", "pk": 156, "fields": {"name": "Nginx", "slug": "nginx", "family": 2, "category": 1, "url": "http://nginx.org/"}},
    {"model": "llx.tool", "pk": 157, "fields": {"name": "Varnish", "slug": "varnish", "family": 0, "category": 1, "url": "https://www.varnish-cache.org/"}},

    {"model": "llx.tool", "pk": 158, "fields": {"name": "Elasticsearch", "slug": "elasticsearch", "family": 0, "category": 1, "url": "http://www.elasticsearch.org/"}},
    {"model": "llx.tool", "pk": 159, "fields": {"name": "Memcached", "slug": "memcached", "family": 0, "category": 1, "url": "http://memcached.org/"}},
    {"model": "llx.tool", "pk": 160, "fields": {"name": "SQLite", "slug": "sqlite", "family": 0, "category": 5, "url": "http://sqlite.org/"}},
    {"model": "llx.tool", "pk": 161, "fields": {"name": "Hibernate", "slug": "hibernate", "family": 0, "category": 5, "url": "http://hibernate.org/"}},
    {"model": "llx.tool", "pk": 162, "fields": {"name": "Hadoop", "slug": "hadoop", "family": 0, "category": 5, "url": "http://hadoop.apache.org/"}},

    {"model": "llx.tool", "pk": 163, "fields": {"name": "Spatialite", "slug": "spatialite", "family": 0, "category": 5, "url": "http://www.gaia-gis.it/gaia-sins/"}},

    {"model": "llx.tool", "pk": 164, "fields": {"name": "SPARQL", "slug": "sparql", "family": 0, "category": 2, "url": "http://www.w3.org/TR/2013/REC-sparql11-overview-20130321/"}},
    {"model": "llx.tool", "pk": 165, "fields": {"name": "GeoServer", "slug": "geoserver", "family": 0, "category": 1, "url": "http://geoserver.org"}},
    {"model": "llx.tool", "pk": 166, "fields": {"name": "Debian", "slug": "debian", "family": 0, "category": 8, "url": "http://www.debian.org"}},
    {"model": "llx.tool", "pk": 167, "fields": {"name": "CentOS", "slug": "centos", "family": 0, "category": 8, "url": ""}},
    {"model": "llx.tool", "pk": 168, "fields": {"name": "RedHat", "slug": "redhat", "family": 0, "category": 8, "url": ""}},

    {"model": "llx.tool", "pk": 169, "fields": {"name": "Puppet", "slug": "puppet", "family": 0, "category": 2, "url": "http://puppetlabs.com"}},
    {"model": "llx.tool", "pk": 170, "fields": {"name": "Chef", "slug": "chef", "family": 0, "category": 2, "url": "http://www.getchef.com/chef/"}},
    {"model": "llx.tool", "pk": 171, "fields": {"name": "TileMill", "slug": "tilemill", "family": 0, "category": 2, "url": "https://www.mapbox.com/tilemill/"}},
    {"model": "llx.tool", "pk": 172, "fields": {"name": "Bazaar", "slug": "bazaar", "family": 0, "category": 6, "url": "http://bazaar.canonical.com/"}},
    {"model": "llx.tool", "pk": 173, "fields": {"name": "hack", "slug": "hack", "family": 0, "category": 2, "url": "http://hacklang.org/"}},
    {"model": "llx.tool", "pk": 174, "fields": {"name": "Common Lisp", "slug": "cl", "family": 0, "category": 2, "url": "None"}},
    {"model": "llx.tool", "pk": 178, "fields": {"name": "Neo4j", "slug": "neo4j", "family": 0, "category": 5, "url": "http://www.neo4j.org/"}},
    {"model": "llx.tool", "pk": 179, "fields": {"name": "razor", "slug": "razor", "family": 0, "category": 2, "url": ""}},
    {"model": "llx.tool", "pk": 180, "fields": {"name": "vagrant", "slug": "vagrant", "family": 0, "category": 1, "url": "http://www.vagrantup.com/"}},
    {"model": "llx.tool", "pk": 181, "fields": {"name": "docker", "slug": "docker", "family": 0, "category": 1, "url": "https://www.docker.io/"}},
    {"model": "llx.tool", "pk": 182, "fields": {"name": "Jenkins", "slug": "jenkins", "family": 0, "category": 1, "url": "http://jenkins-ci.org/"}},
    {"model": "llx.tool", "pk": 183, "fields": {"name": "OpenStack", "slug": "openstack", "family": 0, "category": 1, "url": "https://www.openstack.org/"}},

    {"model": "llx.tool", "pk": 184, "fields": {"name": "Tsung", "slug": "tsung", "family": 0, "category": 9, "url": "http://tsung.erlang-projects.org/"}},
    {"model": "llx.tool", "pk": 185, "fields": {"name": "Gatling", "slug": "gatling", "family": 0, "category": 9, "url": "http://gatling.io/"}},
    {"model": "llx.tool", "pk": 186, "fields": {"name": "JMeter", "slug": "jmeter", "family": 0, "category": 9, "url": "http://jmeter.apache.org/"}},
    {"model": "llx.tool", "pk": 187, "fields": {"name": "FunkLoad", "slug": "funkload", "family": 0, "category": 9, "url": "http://funkload.nuxeo.org/"}},

    {"model": "llx.tool", "pk": 201, "fields": {"name": "PERL", "slug": "perl", "family": 0, "category": 2, "url": "http://www.perl.org"}},
    {"model": "llx.tool", "pk": 202, "fields": {"name": "PHP", "slug": "php", "family": 0, "category": 2, "url": "http://www.php.net"}},
    {"model": "llx.tool", "pk": 203, "fields": {"name": "Java", "slug": "java", "family": 0, "category": 2, "url": "None"}},
    {"model": "llx.tool", "pk": 204, "fields": {"name": "C", "slug": "c", "family": 0, "category": 2, "url": "None"}},
    {"model": "llx.tool", "pk": 205, "fields": {"name": "C++", "slug": "c++", "family": 0, "category": 2, "url": "None"}},
    {"model": "llx.tool", "pk": 206, "fields": {"name": "Lisp", "slug": "lisp", "family": 0, "category": 2, "url": "None"}},
    {"model": "llx.tool", "pk": 207, "fields": {"name": "Eiffel", "slug": "eiffel", "family": 0, "category": 2, "url": "None"}},
    {"model": "llx.tool", "pk": 208, "fields": {"name": "Fortran", "slug": "fortran", "family": 0, "category": 2, "url": "None"}},
    {"model": "llx.tool", "pk": 209, "fields": {"name": "Pascal", "slug": "pascal", "family": 0, "category": 2, "url": "None"}},
    {"model": "llx.tool", "pk": 210, "fields": {"name": "Turbo Pascal", "slug": "turbo_pascal", "family": 0, "category": 2, "url": "None"}},
    {"model": "llx.tool", "pk": 211, "fields": {"name": "HTML", "slug": "html", "family": 0, "category": 2, "url": "None"}},
    {"model": "llx.tool", "pk": 212, "fields": {"name": "Objective C", "slug": "objectivec", "family": 0, "category": 2, "url": "None"}},
    {"model": "llx.tool", "pk": 213, "fields": {"name": "XML", "slug": "xml", "family": 0, "category": 2, "url": "None"}},
    {"model": "llx.tool", "pk": 214, "fields": {"name": "Python", "slug": "python", "family": 0, "category": 2, "url": "None"}},
    {"model": "llx.tool", "pk": 215, "fields": {"name": "SQL", "slug": "sql", "family": 0, "category": 2, "url": "None"}},
    {"model": "llx.tool", "pk": 216, "fields": {"name": "ADA", "slug": "ada", "family": 0, "category": 2, "url": "None"}},
    {"model": "llx.tool", "pk": 217, "fields": {"name": "Tcl/Tk", "slug": "tcltk", "family": 0, "category": 2, "url": "None"}},
    {"model": "llx.tool", "pk": 218, "fields": {"name": "Assembleur", "slug": "assembleur", "family": 0, "category": 2, "url": "None"}},
    {"model": "llx.tool", "pk": 219, "fields": {"name": "Motif/X11", "slug": "motifx11", "family": 0, "category": 2, "url": "None"}},
    {"model": "llx.tool", "pk": 220, "fields": {"name": "Corba", "slug": "corba", "family": 0, "category": 2, "url": "None"}},
    {"model": "llx.tool", "pk": 221, "fields": {"name": "OTcl", "slug": "otcl", "family": 0, "category": 2, "url": "None"}},
    {"model": "llx.tool", "pk": 222, "fields": {"name": "Scheme", "slug": "scheme", "family": 0, "category": 2, "url": "None"}},
    {"model": "llx.tool", "pk": 223, "fields": {"name": "Prolog", "slug": "prolog", "family": 0, "category": 2, "url": "None"}},
    {"model": "llx.tool", "pk": 224, "fields": {"name": "UML", "slug": "uml", "family": 0, "category": 2, "url": "None"}},
    {"model": "llx.tool", "pk": 225, "fields": {"name": "Caml", "slug": "caml", "family": 0, "category": 2, "url": "None"}},
    {"model": "llx.tool", "pk": 226, "fields": {"name": "Gtk+", "slug": "gtk+", "family": 0, "category": 2, "url": "None"}},
    {"model": "llx.tool", "pk": 227, "fields": {"name": "SGML", "slug": "sgml", "family": 0, "category": 2, "url": "None"}},
    {"model": "llx.tool", "pk": 228, "fields": {"name": "CGI", "slug": "cgi", "family": 0, "category": 2, "url": "None"}},
    {"model": "llx.tool", "pk": 229, "fields": {"name": "SmallEiffel", "slug": "smaleiffel", "family": 0, "category": 2, "url": "None"}},
    {"model": "llx.tool", "pk": 230, "fields": {"name": "OpenGL", "slug": "opengl", "family": 0, "category": 2, "url": "None"}},
    {"model": "llx.tool", "pk": 231, "fields": {"name": "SmallTalk", "slug": "smalltalk", "family": 0, "category": 2, "url": "None"}},
    {"model": "llx.tool", "pk": 232, "fields": {"name": "SML", "slug": "sml", "family": 0, "category": 2, "url": "None"}},
    {"model": "llx.tool", "pk": 233, "fields": {"name": "Automake", "slug": "automake", "family": 0, "category": 2, "url": "None"}},
    {"model": "llx.tool", "pk": 234, "fields": {"name": "Autoconf", "slug": "autoconf", "family": 0, "category": 2, "url": "None"}},
    {"model": "llx.tool", "pk": 235, "fields": {"name": "Libtool", "slug": "libtool", "family": 0, "category": 2, "url": "None"}},
    {"model": "llx.tool", "pk": 236, "fields": {"name": "JavaScript", "slug": "javascript", "family": 0, "category": 2, "url": "None"}},
    {"model": "llx.tool", "pk": 237, "fields": {"name": "Shell", "slug": "shell", "family": 0, "category": 2, "url": "None"}},
    {"model": "llx.tool", "pk": 238, "fields": {"name": "Antlr", "slug": "antlr", "family": 0, "category": 2, "url": "None"}},
    {"model": "llx.tool", "pk": 239, "fields": {"name": "Flex", "slug": "flex", "family": 0, "category": 2, "url": "None"}},
    {"model": "llx.tool", "pk": 240, "fields": {"name": "Yacc", "slug": "yacc", "family": 0, "category": 2, "url": "None"}},
    {"model": "llx.tool", "pk": 241, "fields": {"name": "Bison", "slug": "bison", "family": 0, "category": 2, "url": "None"}},
    {"model": "llx.tool", "pk": 242, "fields": {"name": "QT", "slug": "qt", "family": 0, "category": 2, "url": "None"}},
    {"model": "llx.tool", "pk": 243, "fields": {"name": "KDevelop", "slug": "kdevelop", "family": 0, "category": 2, "url": "None"}},
    {"model": "llx.tool", "pk": 244, "fields": {"name": "GNU awk", "slug": "awk", "family": 0, "category": 2, "url": "None"}},
    {"model": "llx.tool", "pk": 245, "fields": {"name": "JBoss", "slug": "jboss", "family": 0, "category": 2, "url": "http://www.jboss.org"}},
    {"model": "llx.tool", "pk": 246, "fields": {"name": "Castor", "slug": "castor", "family": 0, "category": 2, "url": "http://www.castor.org"}},
    {"model": "llx.tool", "pk": 247, "fields": {"name": "Enhydra", "slug": "enhydra", "family": 0, "category": 2, "url": "http://www.enhydra.org"}},
    {"model": "llx.tool", "pk": 248, "fields": {"name": "Forth", "slug": "forth", "family": 0, "category": 2, "url": "None"}},
    {"model": "llx.tool", "pk": 249, "fields": {"name": "mod_perl", "slug": "mod_perl", "family": 0, "category": 2, "url": ""}},
    {"model": "llx.tool", "pk": 250, "fields": {"name": "Ruby", "slug": "ruby", "family": 0, "category": 2, "url": "http://www.ruby-lang.org/"}},
    {"model": "llx.tool", "pk": 251, "fields": {"name": "CSS", "slug": "css", "family": 0, "category": 2, "url": "None"}},
    {"model": "llx.tool", "pk": 252, "fields": {"name": "Erlang", "slug": "erlang", "family": 0, "category": 2, "url": "http://www.erlang.org"}},
    {"model": "llx.tool", "pk": 253, "fields": {"name": "Openlayers", "slug": "opl", "family": 0, "category": 2, "url": "http://openlayers.org"}},
    {"model": "llx.tool", "pk": 254, "fields": {"name": "Django", "slug": "django", "family": 0, "category": 2, "url": "http://www.djangoproject.com/"}},
    {"model": "llx.tool", "pk": 255, "fields": {"name": "Symfony", "slug": "symfony", "family": 0, "category": 2, "url": "http://www.symfony-project.org"}},
    {"model": "llx.tool", "pk": 256, "fields": {"name": "Go", "slug": "go", "family": 0, "category": 2, "url": "golang.org"}},
    {"model": "llx.tool", "pk": 257, "fields": {"name": "Scala", "slug": "scala", "family": 0, "category": 2, "url": "http://www.scala-lang.org/"}},
    {"model": "llx.tool", "pk": 258, "fields": {"name": "RoR", "slug": "ror", "family": 0, "category": 2, "url": "None"}},
    {"model": "llx.tool", "pk": 259, "fields": {"name": "jQuery", "slug": "jquery", "family": 0, "category": 2, "url": "http://jquery.com/"}},
    {"model": "llx.tool", "pk": 260, "fields": {"name": "Lua", "slug": "lua", "family": 0, "category": 2, "url": "http://www.lua.org/"}},
    {"model": "llx.tool", "pk": 261, "fields": {"name": "Leaflet", "slug": "leaflet", "family": 0, "category": 2, "url": "http://leafletjs.com/"}},
    {"model": "llx.tool", "pk": 262, "fields": {"name": "R", "slug": "r", "family": 0, "category": 2, "url": "http://www.r-project.org/"}},

    {"model": "llx.tool", "pk": 326, "fields": {"name": "VoIP", "slug": "voip", "family": 0, "category": 3, "url": "None"}},



    {"model": "llx.sector", "pk": 0, "fields": {"name": "Non spécifié", "slug": "nspp"}},
    {"model": "llx.sector", "pk": 2, "fields": {"name": "Administration", "slug": "admin"}},
    {"model": "llx.sector", "pk": 3, "fields": {"name": "BTP", "slug": "btp"}},
    {"model": "llx.sector", "pk": 4, "fields": {"name": "Enseignement", "slug": "ens"}},
    {"model": "llx.sector", "pk": 5, "fields": {"name": "Industrie", "slug": "indus"}},
    {"model": "llx.sector", "pk": 9, "fields": {"name": "Industrie/Automobile", "slug": "auto"}},
    {"model": "llx.sector", "pk": 8, "fields": {"name": "Industrie/Chimie", "slug": "chim"}},
    {"model": "llx.sector", "pk": 12, "fields": {"name": "Informatique", "slug": "info"}},
    {"model": "llx.sector", "pk": 7, "fields": {"name": "Informatique/Distributeur", "slug": "distri"}},
    {"model": "llx.sector", "pk": 6, "fields": {"name": "Informatique/Editeur", "slug": "edit"}},
    {"model": "llx.sector", "pk": 10, "fields": {"name": "Informatique/Internet", "slug": "internet"}},
    {"model": "llx.sector", "pk": 1, "fields": {"name": "Informatique/SSII", "slug": "ssii"}},
    {"model": "llx.sector", "pk": 11, "fields": {"name": "Recherche", "slug": "recher"}},
    {"model": "llx.sector", "pk": 13, "fields": {"name": "Collectivité territoriale", "slug": "collec"}},

    {"model": "llx.typent", "pk": 0, "fields": {"name": "Non spécifié"}},
    {"model": "llx.typent", "pk": 1, "fields": {"name": "Start-up"}},
    {"model": "llx.typent", "pk": 2, "fields": {"name": "Grand groupe"}},
    {"model": "llx.typent", "pk": 3, "fields": {"name": "PME/PMI"}},
    {"model": "llx.typent", "pk": 4, "fields": {"name": "Administration"}},
    {"model": "llx.typent", "pk": 100, "fields": {"name": "Autres"}},
    {"model": "llx.typent", "pk": 5, "fields": {"name": "Cabinet de recrutement"}},
    {"model": "llx.typent", "pk": 6, "fields": {"name": "Association"}},

    {"model": "llx.effectif", "pk": 0, "fields": {"name": "Non spécifié"}},
    {"model": "llx.effectif", "pk": 1, "fields": {"name": "1 - 5"}},
    {"model": "llx.effectif", "pk": 2, "fields": {"name": "6 - 10"}},
    {"model": "llx.effectif", "pk": 3, "fields": {"name": "11 - 50"}},
    {"model": "llx.effectif", "pk": 4, "fields": {"name": "51 - 100"}},
    {"model": "llx.effectif", "pk": 5, "fields": {"name": "101 - 500"}},
    {"model": "llx.effectif", "pk": 6, "fields": {"name": "> 500"}},

    {"model": "llx.poste", "pk":  32, "fields": {"name": "Service Commercial", "slug": "scomm"}},
    {"model": "llx.poste", "pk":   6, "fields": {"name": "Commercial", "slug": "comm"}},
    {"model": "llx.poste", "pk":   7, "fields": {"name": "Technico commercial", "slug": "tcomm"}},
    {"model": "llx.poste", "pk":   8, "fields": {"name": "Directeur commercial", "slug": "dircomm"}},
    {"model": "llx.poste", "pk":  31, "fields": {"name": "Service Technique", "slug": "st"}},
    {"model": "llx.poste", "pk":  29, "fields": {"name": "Administrateur base de données", "slug": "dba"}},
    {"model": "llx.poste", "pk":  25, "fields": {"name": "Admin. Système/Réseaux", "slug": "adysres"}},
    {"model": "llx.poste", "pk":   4, "fields": {"name": "Administrateur système", "slug": "adminsys"}},
    {"model": "llx.poste", "pk":  12, "fields": {"name": "Administrateur réseaux", "slug": "netadmin"}},
    {"model": "llx.poste", "pk":   1, "fields": {"name": "Analyste", "slug": "ana"}},
    {"model": "llx.poste", "pk":   2, "fields": {"name": "Chef de projet", "slug": "cdp"}},
    {"model": "llx.poste", "pk":  10, "fields": {"name": "Chef de projet junior", "slug": "cdpjun"}},
    {"model": "llx.poste", "pk":  11, "fields": {"name": "Chef de projet senior", "slug": "cdpsen"}},
    {"model": "llx.poste", "pk":   3, "fields": {"name": "Consultant", "slug": "cons"}},
    {"model": "llx.poste", "pk":  15, "fields": {"name": "Développeur", "slug": ""}},
    {"model": "llx.poste", "pk":  16, "fields": {"name": "Développeur junior", "slug": "devjun"}},
    {"model": "llx.poste", "pk":  17, "fields": {"name": "Développeur senior", "slug": "devsen"}},
    {"model": "llx.poste", "pk":   9, "fields": {"name": "Directeur technique", "slug": "dt"}},
    {"model": "llx.poste", "pk":  21, "fields": {"name": "Ingénieur d'étude", "slug": "inge"}},
    {"model": "llx.poste", "pk":  19, "fields": {"name": "Ingénieur support", "slug": "ings"}},
    {"model": "llx.poste", "pk":  27, "fields": {"name": "Responsable R & D", "slug": "retd"}},
    {"model": "llx.poste", "pk":  20, "fields": {"name": "Technicien", "slug": "tech"}},
    {"model": "llx.poste", "pk":  14, "fields": {"name": "Technicien hotline", "slug": "hot"}},
    {"model": "llx.poste", "pk":  18, "fields": {"name": "Technicien maintenance", "slug": "maint"}},
    {"model": "llx.poste", "pk":   5, "fields": {"name": "Webmaster", "slug": "web"}},
    {"model": "llx.poste", "pk":  33, "fields": {"name": "Service qualité", "slug": "qual"}},
    {"model": "llx.poste", "pk":  24, "fields": {"name": "Assistant qualité", "slug": "assitqual"}},
    {"model": "llx.poste", "pk":  23, "fields": {"name": "Responsable qualité", "slug": "resqual"}},
    {"model": "llx.poste", "pk":  26, "fields": {"name": "Fondateur", "slug": "fond"}},
    {"model": "llx.poste", "pk":  13, "fields": {"name": "Formateur", "slug": "form"}},
    {"model": "llx.poste", "pk":  22, "fields": {"name": "Journaliste", "slug": "jour"}},
    {"model": "llx.poste", "pk":  28, "fields": {"name": "Stagiaire", "slug": "stg"}},
    {"model": "llx.poste", "pk":  30, "fields": {"name": "Traducteur", "slug": "trad"}},
    {"model": "llx.poste", "pk":  34, "fields": {"name": "Service Marketing", "slug": "mark"}},
    {"model": "llx.poste", "pk":  35, "fields": {"name": "Responsable Marketing", "slug": "resmark"}},
    {"model": "llx.poste", "pk":  36, "fields": {"name": "Assistant(e) de direction", "slug": "ass"}},
    {"model": "llx.poste", "pk":  37, "fields": {"name": "devOps", "slug": "devops"}},

    {"model": "llx.lang", "pk": 0, "fields": {"name": "Français", "code": "fr"}},
    {"model": "llx.lang", "pk": 1, "fields": {"name": "Allemand", "code": "de"}},
    {"model": "llx.lang", "pk": 2, "fields": {"name": "Anglais", "code": "en"}},
    {"model": "llx.lang", "pk": 3, "fields": {"name": "Italien", "code": "it"}},
    {"model": "llx.lang", "pk": 4, "fields": {"name": "Espagnol", "code": "es"}},
    {"model": "llx.lang", "pk": 5, "fields": {"name": "Finnois", "code": "fi"}},
    {"model": "llx.lang", "pk": 6, "fields": {"name": "Suédois", "code": "sv"}},
    {"model": "llx.lang", "pk": 7, "fields": {"name": "Russe", "code": "ru"}},
    {"model": "llx.lang", "pk": 8, "fields": {"name": "Chinois", "code": "zh"}},
    {"model": "llx.lang", "pk": 9, "fields": {"name": "Arabe", "code": "ar"}},
    {"model": "llx.lang", "pk": 10, "fields": {"name": "Portugais"}},
    {"model": "llx.lang", "pk": 11, "fields": {"name": "Islandais"}},
    {"model": "llx.lang", "pk": 12, "fields": {"name": "Japonais"}},
    {"model": "llx.lang", "pk": 13, "fields": {"name": "Grecque"}},
    {"model": "llx.lang", "pk": 14, "fields": {"name":  "Danois"}},
    {"model": "llx.lang", "pk": 15, "fields": {"name":  "Néerlandais"}},
    {"model": "llx.lang", "pk": 16, "fields": {"name": "Tcheques"}},
    {"model": "llx.lang", "pk": 17, "fields": {"name": "Polonais"}},
    {"model": "llx.lang", "pk": 18, "fields": {"name": "Roumain"}},
    {"model": "llx.lang", "pk": 19, "fields": {"name": "Thailandais"}},
    {"model": "llx.lang", "pk": 20, "fields": {"name": "Vietnamien"}},
    {"model": "llx.lang", "pk": 21, "fields": {"name": "Laotien"}},
    {"model": "llx.lang", "pk": 22, "fields": {"name": "Corse"}},
    {"model": "llx.lang", "pk": 23, "fields": {"name": "Hongrois"}},
    {"model": "llx.lang", "pk": 24, "fields": {"name": "Norvégien"}},
    {"model": "llx.lang", "pk": 25, "fields": {"name": "Turque"}},
    {"model": "llx.lang", "pk": 26, "fields": {"name": "Yougoslave"}},
    {"model": "llx.lang", "pk": 27, "fields": {"name": "Esperanto"}}

]
